{
  "stats": {
    "tconstruct:extra": {},
    "tconstruct:handle": {
      "durability": 1.15,
      "miningSpeed": 0.8,
      "attackSpeed": 1.0,
      "attackDamage": 1.1
    },
    "tconstruct:head": {
      "durability": 380,
      "miningSpeed": 6.0,
      "harvestLevel": 3,
      "attack": 1.1
    }
  }
}