{
  "type": "tconstruct:molding_table",
  "material": {
    "item": "tconstruct:blank_red_sand_cast"
  },
  "pattern": {
    "item": "tdelight:naginata_head",
    "type": "tconstruct:material"
  },
  "result": "tdelight:naginata_head_red_sand_cast"
}