{
  "type": "tconstruct:casting_table",
  "conditions": [
    {
      "value": {
        "tag": "forge:wires/rosenquartz",
        "type": "forge:tag_empty"
      },
      "type": "forge:not"
    }
  ],
  "cast": {
    "tag": "tconstruct:casts/multi_use/wire"
  },
  "fluid": {
    "tag": "forge:molten_rosenquartz",
    "amount": 72
  },
  "result": {
    "tag": "forge:wires/rosenquartz"
  },
  "cooling_time": 40
}