{
  "type": "tconstruct:casting_table",
  "conditions": [
    {
      "value": {
        "tag": "forge:coins/rosenquartz",
        "type": "forge:tag_empty"
      },
      "type": "forge:not"
    }
  ],
  "cast": {
    "tag": "tconstruct:casts/single_use/coin"
  },
  "cast_consumed": true,
  "fluid": {
    "tag": "forge:molten_rosenquartz",
    "amount": 48
  },
  "result": {
    "tag": "forge:coins/rosenquartz"
  },
  "cooling_time": 33
}