{
  "type": "tconstruct:casting_table",
  "conditions": [
    {
      "value": {
        "tag": "forge:plates/rosenquartz",
        "type": "forge:tag_empty"
      },
      "type": "forge:not"
    }
  ],
  "cast": {
    "tag": "tconstruct:casts/multi_use/plate"
  },
  "fluid": {
    "tag": "forge:molten_rosenquartz",
    "amount": 144
  },
  "result": {
    "tag": "forge:plates/rosenquartz"
  },
  "cooling_time": 57
}