{
  "type": "tconstruct:casting_table",
  "cast": {
    "tag": "tconstruct:casts/multi_use/ingot"
  },
  "fluid": {
    "tag": "forge:molten_hamletite",
    "amount": 144
  },
  "result": {
    "tag": "forge:ingots/hamletite"
  },
  "cooling_time": 57
}